{
  "next": "https://api.dev.parham.in/api/org/1/asset/?page=2&page_size=20",
  "previous": null,
  "count": 116,
  "current": 1,
  "pages": 6,
  "results": [
    {
      "host": "192.168.00.188",
      "display_name": "device_00.88",
      "unique_id": "029e457a-057d-4502-832b-5fe976d040b3",
      "tags": ["database-88", "server-88"],
      "type": "infra",
      "is_live": false,
      "time_to_decommission": "130 days ago",
      "created_at": "2022-03-09T08:48:28.348679Z",
      "updated_at": "2022-07-07T04:54:29.603829Z",
      "decommission_date": "2022-07-07",
      "org_id": 1,
      "latest_risk_score": null,
      "scan_cycle_count": 2,
      "vuln_count": 0,
      "vuln_breakup": {},
      "last_scan": {},
      "cve_status_distribution": {}
    },
    {
      "host": "192.168.00.40",
      "display_name": "device_00.40",
      "unique_id": "03056f3f-a149-44db-8d2d-b17e826882eb",
      "tags": ["database 40", "server 40"],
      "type": "infra",
      "is_live": null,
      "time_to_decommission": "130 days ago",
      "created_at": "2022-03-09T08:48:25.644878Z",
      "updated_at": "2022-03-09T08:48:25.644896Z",
      "decommission_date": "2022-08-16",
      "org_id": 1,
      "latest_risk_score": null,
      "scan_cycle_count": 1,
      "vuln_count": 0,
      "vuln_breakup": {},
      "last_scan": {},
      "cve_status_distribution": {}
    },
    {
      "host": "192.168.00.31",
      "display_name": "device_00.31",
      "unique_id": "07b61521-c34c-4cb9-819b-f32346d358cc",
      "tags": ["database 31", "server 31"],
      "type": "infra",
      "is_live": null,
      "time_to_decommission": "130 days ago",
      "created_at": "2022-03-09T08:48:25.145022Z",
      "updated_at": "2022-03-09T08:48:25.145042Z",
      "decommission_date": "2022-08-16",
      "org_id": 1,
      "latest_risk_score": null,
      "scan_cycle_count": 1,
      "vuln_count": 0,
      "vuln_breakup": {},
      "last_scan": {},
      "cve_status_distribution": {}
    },
    {
      "host": "192.168.00.65",
      "display_name": "device_00.65",
      "unique_id": "081c5443-c3f4-4099-9cb2-c01147cacbb6",
      "tags": ["database 65", "server 65"],
      "type": "infra",
      "is_live": null,
      "time_to_decommission": "130 days ago",
      "created_at": "2022-03-09T08:48:26.963404Z",
      "updated_at": "2022-03-09T08:48:26.963424Z",
      "decommission_date": "2022-08-16",
      "org_id": 1,
      "latest_risk_score": null,
      "scan_cycle_count": 1,
      "vuln_count": 0,
      "vuln_breakup": {},
      "last_scan": {},
      "cve_status_distribution": {}
    },
    {
      "host": "koo",
      "display_name": "poo",
      "unique_id": "08cd2f56-0965-4747-8ae0-1061b76b5298",
      "tags": ["poo"],
      "type": "koo",
      "is_live": false,
      "time_to_decommission": "90 days ago",
      "created_at": "2022-08-16T07:52:02.573606Z",
      "updated_at": "2022-08-16T07:52:02.573625Z",
      "decommission_date": "2022-08-16",
      "org_id": 1,
      "latest_risk_score": null,
      "scan_cycle_count": 1,
      "vuln_count": 0,
      "vuln_breakup": {},
      "last_scan": {},
      "cve_status_distribution": {}
    },
    {
      "host": "192.168.00.76",
      "display_name": "device_00.76",
      "unique_id": "0910d96d-9c02-4fca-a14b-886c3e5ee954",
      "tags": ["database 76", "server 76"],
      "type": "infra",
      "is_live": null,
      "time_to_decommission": "130 days ago",
      "created_at": "2022-03-09T08:48:27.700259Z",
      "updated_at": "2022-03-09T08:48:27.700290Z",
      "decommission_date": "2022-08-16",
      "org_id": 1,
      "latest_risk_score": null,
      "scan_cycle_count": 0,
      "vuln_count": 0,
      "vuln_breakup": {},
      "last_scan": {},
      "cve_status_distribution": {}
    },
    {
      "host": "192.168.00.29",
      "display_name": "device_00.29",
      "unique_id": "0be59447-d20c-47fb-8e18-83f53e7a2a06",
      "tags": ["database 29", "server 29"],
      "type": "infra",
      "is_live": null,
      "time_to_decommission": "130 days ago",
      "created_at": "2022-03-09T08:48:25.018771Z",
      "updated_at": "2022-03-09T08:48:25.018788Z",
      "decommission_date": "2022-08-16",
      "org_id": 1,
      "latest_risk_score": null,
      "scan_cycle_count": 0,
      "vuln_count": 0,
      "vuln_breakup": {},
      "last_scan": {},
      "cve_status_distribution": {}
    },
    {
      "host": "192.168.00.74",
      "display_name": "device_00.74",
      "unique_id": "0ddcb5fb-8d1d-4a67-a30d-b5440d05dcd3",
      "tags": ["database 74", "server 74"],
      "type": "infra",
      "is_live": null,
      "time_to_decommission": "130 days ago",
      "created_at": "2022-03-09T08:48:27.587235Z",
      "updated_at": "2022-03-09T08:48:27.587253Z",
      "decommission_date": "2022-08-16",
      "org_id": 1,
      "latest_risk_score": null,
      "scan_cycle_count": 0,
      "vuln_count": 0,
      "vuln_breakup": {},
      "last_scan": {},
      "cve_status_distribution": {}
    },
    {
      "host": "192.168.00.94",
      "display_name": "device_00.94",
      "unique_id": "0e667377-1fbe-4e5f-a337-df2836480c62",
      "tags": ["database 94", "server 94"],
      "type": "infra",
      "is_live": null,
      "time_to_decommission": "130 days ago",
      "created_at": "2022-03-09T08:48:28.671569Z",
      "updated_at": "2022-03-09T08:48:28.671589Z",
      "decommission_date": "2022-08-16",
      "org_id": 1,
      "latest_risk_score": null,
      "scan_cycle_count": 0,
      "vuln_count": 0,
      "vuln_breakup": {},
      "last_scan": {},
      "cve_status_distribution": {}
    },
    {
      "host": "192.168.00.55",
      "display_name": "device_00.55",
      "unique_id": "0ecae7f8-5d91-4686-9da4-69ae808a7951",
      "tags": ["database 55", "server 55"],
      "type": "infra",
      "is_live": null,
      "time_to_decommission": "130 days ago",
      "created_at": "2022-03-09T08:48:26.461706Z",
      "updated_at": "2022-03-09T08:48:26.461727Z",
      "decommission_date": "2022-08-16",
      "org_id": 1,
      "latest_risk_score": null,
      "scan_cycle_count": 1,
      "vuln_count": 0,
      "vuln_breakup": {},
      "last_scan": {},
      "cve_status_distribution": {}
    },
    {
      "host": "192.168.00.47",
      "display_name": "device_00.47",
      "unique_id": "10b6834e-a9f1-484d-9d06-ab2ecb9c8ef7",
      "tags": ["database 47", "server 47"],
      "type": "infra",
      "is_live": null,
      "time_to_decommission": "130 days ago",
      "created_at": "2022-03-09T08:48:26.028452Z",
      "updated_at": "2022-03-09T08:48:26.028470Z",
      "decommission_date": "2022-08-16",
      "org_id": 1,
      "latest_risk_score": null,
      "scan_cycle_count": 1,
      "vuln_count": 0,
      "vuln_breakup": {},
      "last_scan": {},
      "cve_status_distribution": {}
    },
    {
      "host": "loo3",
      "display_name": "woo3",
      "unique_id": "123e44b3-7139-4d12-a671-b2ba36679ce5",
      "tags": ["woo3"],
      "type": "loo3",
      "is_live": false,
      "time_to_decommission": "90 days ago",
      "created_at": "2022-08-16T05:41:15.324875Z",
      "updated_at": "2022-08-16T05:41:15.324903Z",
      "decommission_date": "2022-08-16",
      "org_id": 1,
      "latest_risk_score": null,
      "scan_cycle_count": 1,
      "vuln_count": 0,
      "vuln_breakup": {},
      "last_scan": {},
      "cve_status_distribution": {}
    },
    {
      "host": "192.168.00.50",
      "display_name": "device_00.50",
      "unique_id": "14ce5873-013a-4ce0-8623-77e31a594907",
      "tags": ["database 50", "server 50"],
      "type": "infra",
      "is_live": null,
      "time_to_decommission": "130 days ago",
      "created_at": "2022-03-09T08:48:26.180938Z",
      "updated_at": "2022-03-09T08:48:26.180959Z",
      "decommission_date": "2022-08-16",
      "org_id": 1,
      "latest_risk_score": null,
      "scan_cycle_count": 0,
      "vuln_count": 0,
      "vuln_breakup": {},
      "last_scan": {},
      "cve_status_distribution": {}
    }
  ],
  "page_size": 20,
  "page_size_query_param": "page_size"
}
